{
  "activeViewId" : "09dde1e8-567f-4a26-a915-a8af05aa0a32",
  "appPageId" : "6e36f285-e219-4a6f-8769-183ea4f1749c",
  "configurationTags" : [ ],
  "id" : "1222faa9-1b54-474b-8014-b7250918a6e6",
  "label" : "Arquivo Related List",
  "routeType" : "relatedlist-069",
  "type" : "route",
  "urlPrefix" : "contentdocument"
}