{
  "activeViewId" : "536db8b9-9837-431e-88fb-574903935fb5",
  "appPageId" : "6e36f285-e219-4a6f-8769-183ea4f1749c",
  "configurationTags" : [ ],
  "id" : "914e912d-c3cb-4dcd-b1f7-d2bffd10a3a5",
  "label" : "Dashboard List",
  "routeType" : "list-01Z",
  "type" : "route",
  "urlPrefix" : "dashboard"
}