{
  "activeViewId" : "1ab0e628-4b72-423a-8dad-c579e4804380",
  "appPageId" : "6e36f285-e219-4a6f-8769-183ea4f1749c",
  "configurationTags" : [ ],
  "id" : "f8ee00ab-8439-4290-b751-5ab4a8c23933",
  "label" : "File Detail",
  "routeType" : "detail-069",
  "type" : "route",
  "urlPrefix" : "contentdocument"
}