{
  "activeViewId" : "c5766cb5-afe5-4027-91d3-5b94144df21a",
  "appPageId" : "c74ef728-5da8-4f6f-bd77-544124f441c5",
  "configurationTags" : [ ],
  "id" : "987a203f-f49a-46c5-9816-7d12648cc322",
  "label" : "Login Error",
  "routeType" : "login-error",
  "type" : "route",
  "urlPrefix" : "error"
}