{
  "activeViewId" : "12ba03f4-fc28-4344-8c9e-8569c468fe29",
  "appPageId" : "c74ef728-5da8-4f6f-bd77-544124f441c5",
  "configurationTags" : [ ],
  "id" : "86814e05-4d76-4936-a692-e9ba5ecf9468",
  "label" : "Login",
  "routeType" : "login-home",
  "type" : "route",
  "urlPrefix" : ""
}