{
  "activeViewId" : "014b99de-0ee3-493d-8586-d72b993ebbb8",
  "appPageId" : "6e36f285-e219-4a6f-8769-183ea4f1749c",
  "configurationTags" : [ ],
  "id" : "6083656c-345e-4a2e-a473-d4cb1147f673",
  "label" : "Messages",
  "routeType" : "messages",
  "type" : "route",
  "urlPrefix" : "messages"
}