{
  "activeViewId" : "b0f5c15f-8687-4987-9b09-70afa0a37906",
  "appPageId" : "6e36f285-e219-4a6f-8769-183ea4f1749c",
  "configurationTags" : [ ],
  "id" : "80033217-8ce5-4bce-8aa9-6ea0eccdffeb",
  "label" : "Painel Related List",
  "routeType" : "relatedlist-01Z",
  "type" : "route",
  "urlPrefix" : "dashboard"
}