{
  "activeViewId" : "f618b5a8-27c7-42fc-bcf8-8cc035e0bfeb",
  "appPageId" : "6e36f285-e219-4a6f-8769-183ea4f1749c",
  "configurationTags" : [ ],
  "id" : "4c0cf76b-ee2f-438a-87dc-95d4d57438aa",
  "label" : "Report List",
  "routeType" : "list-00O",
  "type" : "route",
  "urlPrefix" : "report"
}