{
  "activeViewId" : "7d0b7f9a-0b4c-4d00-bbd7-8c9c0995f5d7",
  "appPageId" : "6e36f285-e219-4a6f-8769-183ea4f1749c",
  "configurationTags" : [ ],
  "id" : "15e0ad2d-dbd8-4e63-9bbe-f024ce0aab7c",
  "label" : "Topic Detail",
  "routeType" : "topic",
  "type" : "route",
  "urlPrefix" : "topic"
}