{
  "activeViewId" : "7404c03e-7449-4d78-ab98-439095d17b77",
  "appPageId" : "6e36f285-e219-4a6f-8769-183ea4f1749c",
  "configurationTags" : [ ],
  "id" : "63842952-71c1-4513-b47a-6a95b23bacaf",
  "label" : "Usuário Related List",
  "routeType" : "relatedlist-005",
  "type" : "route",
  "urlPrefix" : "profile"
}