{
  "activeViewId" : "ddd3b250-79c4-4fc5-b4a4-d245427c30b8",
  "appPageId" : "8a65171b-6881-42fd-a0ec-abd0f196a553",
  "configurationTags" : [ ],
  "id" : "afbb2773-3a21-45d9-99b5-e7169b98f302",
  "label" : "Create Record",
  "routeType" : "createrecord",
  "type" : "route",
  "urlPrefix" : "createrecord"
}