{
  "activeViewId" : "eb31b34f-8b71-41a4-9eac-b3223c5df929",
  "appPageId" : "de3e5066-9e0f-4003-8232-167e8654493d",
  "configurationTags" : [ ],
  "id" : "e68e0e6a-a2a6-458b-9d06-b70be489909c",
  "label" : "Login",
  "routeType" : "login-home",
  "type" : "route",
  "urlPrefix" : ""
}