{
  "activeViewId" : "4a780188-a1ed-4ccd-a20c-7c798942761e",
  "appPageId" : "de3e5066-9e0f-4003-8232-167e8654493d",
  "configurationTags" : [ ],
  "id" : "3eade9ee-1fe4-447a-a251-2167ba269b03",
  "label" : "Login Error",
  "routeType" : "login-error",
  "type" : "route",
  "urlPrefix" : "error"
}