{
  "activeViewId" : "62838796-94de-46c9-ad48-7fc50f3d2872",
  "appPageId" : "8a65171b-6881-42fd-a0ec-abd0f196a553",
  "configurationTags" : [ ],
  "id" : "fcf50e34-6960-4e7a-8edb-700ed31f77d9",
  "label" : "Resources",
  "pageAccess" : "UseParent",
  "routeType" : "files",
  "type" : "route",
  "urlPrefix" : "files"
}