{
  "activeViewId" : "50918283-3809-4630-b1ba-35b410ff1020",
  "appPageId" : "8a65171b-6881-42fd-a0ec-abd0f196a553",
  "configurationTags" : [ ],
  "id" : "8d659c63-74ed-42a6-9a21-3c4b3e598465",
  "label" : "Top Articles",
  "pageAccess" : "UseParent",
  "routeType" : "top-articles",
  "type" : "route",
  "urlPrefix" : "toparticles"
}