{
  "id" : "0c244c6c-bc6a-4ceb-afe1-1877ce9b7a92",
  "mobilePublisherAppUpdateConfig" : {
    "forceAppUpdate" : false,
    "minVersion" : {
      "ios" : {
        "version" : "10.0"
      },
      "android" : {
        "version" : "10.1"
      }
    }
  },
  "nativeMobileNavConfig" : {
    "showBackButton" : true,
    "showHamburgerMenuWithBackButton" : false
  },
  "nativeTabMenu" : {
    "branding" : {
      "iconTintColorUnselected" : "#C9C5C5",
      "barTintColor" : "#FFFFFF"
    },
    "menuItems" : [ {
      "name" : "Home",
      "targetUrl" : "/",
      "iconAsset" : "slds-icon:home"
    }, {
      "name" : "Settings",
      "targetUrl" : "/settings/home",
      "iconAsset" : "slds-icon:user"
    } ]
  },
  "showHamburgerMenu" : true,
  "type" : "nativeConfig"
}