{
  "forgotPasswordRouteId" : "e4adb62e-d79e-41af-a0b1-83d7f473279f",
  "isAvailableToGuests" : true,
  "isFilteredComponentsView" : false,
  "isProgressiveRenderingEnabled" : false,
  "loginAppPageId" : "de3e5066-9e0f-4003-8232-167e8654493d",
  "mainAppPageId" : "8a65171b-6881-42fd-a0ec-abd0f196a553",
  "preferredDomain" : "none",
  "selfRegistrationRouteId" : "ddf47111-2e95-47bd-95ec-8dc0597f902e",
  "type" : "site"
}