{
  "appPageId" : "8a65171b-6881-42fd-a0ec-abd0f196a553",
  "componentName" : "siteforce:sldsTwoCol66Layout",
  "id" : "f0c9b93d-4c5e-45b3-a730-40321db6e8dc",
  "label" : "Contact Us",
  "regions" : [ {
    "id" : "534f111f-0470-4fd3-a216-45dda0af44c1",
    "regionName" : "header",
    "type" : "region"
  }, {
    "components" : [ {
      "componentAttributes" : {
        "allowAttachments" : true,
        "attachmentLabel" : "Upload File",
        "buttonAlignment" : "center",
        "buttonBgColor" : "",
        "buttonBgHoverColor" : "",
        "buttonBorderColor" : "",
        "buttonMaxWidth" : "",
        "buttonRadius" : 0,
        "buttonTextColor" : "",
        "buttonTextHoverColor" : "",
        "callToAction" : false,
        "callToActionButtonText" : "",
        "callToActionText" : "",
        "callToActionUrl" : "",
        "confirmationSubtext" : "We’ll get back to you soon.",
        "confirmationText" : "Your case was created.",
        "guestQuickActionName" : "Selecionar ou configurar uma ação global",
        "headerSubtitle" : "Tell us how we can help.",
        "headerTitle" : "Contact Customer Support",
        "isMicrobatch" : false,
        "quickActionName" : "",
        "requestSummaryText" : "Case summary"
      },
      "componentName" : "forceCommunity:contactSupportForm",
      "id" : "d0006484-48e3-4077-9fb8-0cb70e7ed20e",
      "renderPriority" : "NEUTRAL",
      "renditionMap" : { },
      "type" : "component"
    } ],
    "id" : "44d0d548-b355-4f2d-8656-a1f9c3034644",
    "regionName" : "content",
    "type" : "region"
  }, {
    "components" : [ {
      "componentAttributes" : {
        "askConfirmationQuestion" : true,
        "confirmationMessageLabel" : "Got it!",
        "deflectionSubtitle" : "Find what you need here.",
        "deflectionTitle" : "Need Answers Fast?",
        "firstQuestion" : "Did this content solve your issue?",
        "maxResults" : 6,
        "measureDeflection" : true,
        "redirectUrl" : "",
        "secondQuestion" : "Stop creating your case?",
        "showArticles" : true,
        "showDiscussions" : false,
        "topicId" : ""
      },
      "componentName" : "forceCommunity:caseDeflection",
      "id" : "0f5f4cef-68ad-4dfd-adf5-ce1112bfbfcb",
      "renderPriority" : "NEUTRAL",
      "renditionMap" : { },
      "type" : "component"
    } ],
    "id" : "506d0bd6-a1a0-4e87-8359-9d243a45bcc8",
    "regionName" : "sidebar",
    "type" : "region"
  }, {
    "id" : "6c72c8f4-c4d4-4fd7-8959-7b2c4547dae8",
    "regionName" : "footer",
    "type" : "region"
  }, {
    "components" : [ {
      "componentAttributes" : {
        "customHeadTags" : "",
        "description" : "",
        "title" : "Contact Us"
      },
      "componentName" : "forceCommunity:seoAssistant",
      "id" : "48c453db-a5da-482d-b911-e32c343adef5",
      "renditionMap" : { },
      "type" : "component"
    } ],
    "id" : "a50a2544-dcbe-47ef-af1c-36fd784bbf4a",
    "regionName" : "sfdcHiddenRegion",
    "type" : "region"
  } ],
  "themeLayoutType" : "Inner",
  "type" : "view",
  "viewType" : "contactsupport"
}