{
  "appPageId" : "8a65171b-6881-42fd-a0ec-abd0f196a553",
  "componentName" : "siteforce:sldsOneColLayout",
  "id" : "ddd3b250-79c4-4fc5-b4a4-d245427c30b8",
  "label" : "Create Record",
  "regions" : [ {
    "id" : "c2e83a40-7895-4c90-b073-49f57a3c0440",
    "regionName" : "header",
    "type" : "region"
  }, {
    "components" : [ {
      "componentAttributes" : {
        "actionApiName" : "{!actionApiName}",
        "isMicrobatch" : false
      },
      "componentName" : "forceCommunity:createRecordForm",
      "id" : "24dc6d10-5fbf-4d09-8e27-e8ad145ae164",
      "renderPriority" : "NEUTRAL",
      "renditionMap" : { },
      "type" : "component"
    } ],
    "id" : "400019b7-fc5c-48a6-9d27-f9ba7fe292ee",
    "regionName" : "content",
    "type" : "region"
  }, {
    "id" : "2fd44507-ef41-44c8-b1e7-246726ba274c",
    "regionName" : "footer",
    "type" : "region"
  } ],
  "themeLayoutType" : "Inner",
  "type" : "view",
  "viewType" : "createrecord"
}