{
  "appPageId" : "8a65171b-6881-42fd-a0ec-abd0f196a553",
  "componentName" : "siteforce:sldsOneColLayout",
  "id" : "6bf25b27-8e4c-48ee-b69d-84db7dad0cd0",
  "label" : "Dashboard Detail",
  "regions" : [ {
    "id" : "705e0cb5-631a-42c0-ac3e-98e761f17bf8",
    "regionName" : "header",
    "type" : "region"
  }, {
    "components" : [ {
      "componentAttributes" : {
        "height" : "1065",
        "recordId" : "{!recordId}"
      },
      "componentName" : "forceCommunity:dashboard",
      "id" : "94cf6c2e-cab9-4bbb-9e95-b723b3c8d48f",
      "renderPriority" : "NEUTRAL",
      "renditionMap" : { },
      "type" : "component"
    } ],
    "id" : "378858ae-fa95-432a-ba89-5c5b4641222e",
    "regionName" : "content",
    "type" : "region"
  }, {
    "id" : "668a2870-ad36-42eb-a97a-035bfe677503",
    "regionName" : "footer",
    "type" : "region"
  }, {
    "components" : [ {
      "componentAttributes" : {
        "customHeadTags" : "",
        "description" : "",
        "title" : "{!Record._Object}: {!Record._Title}"
      },
      "componentName" : "forceCommunity:seoAssistant",
      "id" : "9bae1a26-264e-4a41-a509-a9d7e94fbdfc",
      "renditionMap" : { },
      "type" : "component"
    } ],
    "id" : "4141b65a-7508-4aea-b023-6da0e198570c",
    "regionName" : "sfdcHiddenRegion",
    "type" : "region"
  } ],
  "themeLayoutType" : "Inner",
  "type" : "view",
  "viewType" : "detail-01Z"
}