{
  "appPageId" : "8a65171b-6881-42fd-a0ec-abd0f196a553",
  "componentName" : "siteforce:sldsTwoCol84Layout",
  "id" : "a4d7e756-e816-4856-8d07-30faa03b052e",
  "label" : "Question Detail",
  "regions" : [ {
    "id" : "9ff78dc3-96d4-4a8a-99ae-2bb43119acda",
    "regionName" : "header",
    "type" : "region"
  }, {
    "components" : [ {
      "componentAttributes" : {
        "id" : "{!recordId}"
      },
      "componentName" : "forceCommunity:feedItemDetail",
      "id" : "1a138fe2-7146-4d71-9ece-56b413dc1220",
      "renderPriority" : "NEUTRAL",
      "renditionMap" : { },
      "type" : "component"
    } ],
    "id" : "c232fdbb-a6e6-4e8b-8ca9-70ba501599cf",
    "regionName" : "content",
    "type" : "region"
  }, {
    "id" : "24b0315d-1a83-4040-9d9d-a933b72f0b31",
    "regionName" : "sidebar",
    "type" : "region"
  }, {
    "id" : "c5c14c0a-9b7a-4e6a-aa1c-28a2f008146c",
    "regionName" : "footer",
    "type" : "region"
  }, {
    "components" : [ {
      "componentAttributes" : {
        "customHeadTags" : "",
        "description" : "",
        "title" : "{!Record.Title}"
      },
      "componentName" : "forceCommunity:seoAssistant",
      "id" : "c19b9778-029a-44f2-b997-589af81b6995",
      "renditionMap" : { },
      "type" : "component"
    } ],
    "id" : "ab68d28b-d3b6-4aa0-b23a-dda1159effba",
    "regionName" : "sfdcHiddenRegion",
    "type" : "region"
  } ],
  "themeLayoutType" : "Inner",
  "type" : "view",
  "viewType" : "feeditem"
}