{
  "appPageId" : "8a65171b-6881-42fd-a0ec-abd0f196a553",
  "componentName" : "siteforce:sldsOneColLayout",
  "id" : "6fa1ccf9-7930-4eb5-9722-c14351526324",
  "label" : "Record Detail",
  "regions" : [ {
    "id" : "f20fe31a-1e81-4605-9136-8b2b9858ee9f",
    "regionName" : "header",
    "type" : "region"
  }, {
    "components" : [ {
      "componentAttributes" : {
        "recordId" : "{!recordId}"
      },
      "componentName" : "forceCommunity:recordHeadline",
      "id" : "a59309fb-430c-490b-a4b4-345a40e8017a",
      "renderPriority" : "NEUTRAL",
      "renditionMap" : { },
      "type" : "component"
    }, {
      "componentAttributes" : {
        "detailsTabLabel" : "Details",
        "discussionsTabLabel" : "Feed",
        "recordId" : "{!recordId}",
        "relatedTabLabel" : "Related",
        "tab1Type" : "details",
        "tab2Type" : "related",
        "tab3Type" : "chatter",
        "tab4Type" : "none",
        "timelineTabLabel" : "Activity"
      },
      "componentName" : "forceCommunity:recordHomeTabs",
      "id" : "fe6f772b-5854-4afd-ad40-5572955ab5ca",
      "renderPriority" : "NEUTRAL",
      "renditionMap" : { },
      "type" : "component"
    } ],
    "id" : "92bcac2e-7d7f-4722-b5d8-fe2a5b592ff3",
    "regionName" : "content",
    "type" : "region"
  }, {
    "id" : "4709285e-b76a-4963-845f-4239ea89b32b",
    "regionName" : "footer",
    "type" : "region"
  }, {
    "components" : [ {
      "componentAttributes" : {
        "customHeadTags" : "",
        "description" : "",
        "title" : "{!Record._Object}: {!Record._Title}"
      },
      "componentName" : "forceCommunity:seoAssistant",
      "id" : "791eb5d7-6cd4-437d-8c0f-76da521d2e70",
      "renditionMap" : { },
      "type" : "component"
    } ],
    "id" : "c29b6675-3ebb-43f2-9358-2bbd8ce279ce",
    "regionName" : "sfdcHiddenRegion",
    "type" : "region"
  } ],
  "themeLayoutType" : "Inner",
  "type" : "view",
  "viewType" : "detail"
}