{
  "appPageId" : "8a65171b-6881-42fd-a0ec-abd0f196a553",
  "componentName" : "siteforce:sldsOneColLayout",
  "id" : "9b73c6e9-04bc-4198-814a-7fa70c4aff57",
  "label" : "Report Builder",
  "regions" : [ {
    "id" : "18e11db6-0e82-4149-9827-96a35ddbdbae",
    "regionName" : "header",
    "type" : "region"
  }, {
    "components" : [ {
      "componentAttributes" : {
        "recordId" : "{!recordId}"
      },
      "componentName" : "forceCommunity:reportBuilder",
      "id" : "a3702b02-47ca-4293-b56f-fb7eb92ab14f",
      "renderPriority" : "NEUTRAL",
      "renditionMap" : { },
      "type" : "component"
    } ],
    "id" : "7b2f0d97-7c6d-4ca4-ab77-d40d71f78244",
    "regionName" : "content",
    "type" : "region"
  }, {
    "id" : "8b212010-14b3-4656-8e41-034ba457c98b",
    "regionName" : "footer",
    "type" : "region"
  } ],
  "themeLayoutType" : "Inner",
  "type" : "view",
  "viewType" : "createreport"
}