{
  "appPageId" : "8a65171b-6881-42fd-a0ec-abd0f196a553",
  "componentName" : "siteforce:sldsOneColLayout",
  "id" : "62838796-94de-46c9-ad48-7fc50f3d2872",
  "label" : "Resources",
  "regions" : [ {
    "id" : "0ca0e1dc-2f22-4607-821d-82196e20ee18",
    "regionName" : "header",
    "type" : "region"
  }, {
    "components" : [ {
      "componentAttributes" : {
        "pageSize" : 25
      },
      "componentName" : "forceCommunity:filesList",
      "id" : "7d90b65c-4aea-44d2-9912-1f24387e401e",
      "renderPriority" : "NEUTRAL",
      "renditionMap" : { },
      "type" : "component"
    } ],
    "id" : "dd233242-c5dc-44be-8a23-3d19e5832e29",
    "regionName" : "content",
    "type" : "region"
  }, {
    "id" : "7b10a39d-96ef-4b36-8782-28e8f30c1f4e",
    "regionName" : "footer",
    "type" : "region"
  }, {
    "components" : [ {
      "componentAttributes" : {
        "customHeadTags" : "",
        "description" : "",
        "title" : "Resources"
      },
      "componentName" : "forceCommunity:seoAssistant",
      "id" : "28c45c9c-0dd5-44fb-aa8e-97729a6c55bb",
      "renditionMap" : { },
      "type" : "component"
    } ],
    "id" : "9c8529cb-316b-4151-aabf-e384b7e8ca7c",
    "regionName" : "sfdcHiddenRegion",
    "type" : "region"
  } ],
  "themeLayoutType" : "Inner",
  "type" : "view",
  "viewType" : "files"
}