{
  "appPageId" : "8a65171b-6881-42fd-a0ec-abd0f196a553",
  "componentName" : "siteforce:sldsOneColLayout",
  "id" : "a95a3c11-1c65-432d-b97d-7283575b1eb9",
  "label" : "User Settings",
  "regions" : [ {
    "id" : "43354457-a914-48b8-8225-df849dc50874",
    "regionName" : "header",
    "type" : "region"
  }, {
    "components" : [ {
      "componentAttributes" : {
        "accountSectionTitle" : "Account",
        "accountTabName" : "Account Management",
        "connectedSourcesTabName" : "Connected Sources",
        "deleteAccountButtonTitle" : "Deactivate My Account",
        "deleteAccountConfirmationPopupBody" : "After you deactivate your account, you'll lose access to this site.",
        "deleteAccountConfirmationPopupButtonTitle" : "Got It",
        "deleteAccountConfirmationPopupTitle" : "Deactivate your account?",
        "deleteAccountErrorMessage" : "Something went wrong. Contact your site administrator.",
        "deleteAccountSectionTitle" : "Deactivate Account",
        "emailNotificationsTitle" : "Email Notifications",
        "emailSectionDescText" : "When email notifications are enabled, email me when someone:",
        "hideAccountDeleteSection" : true,
        "hideChatterNotificationSettings" : true,
        "hideConnectedSources" : false,
        "hideEmailNotificationSettings" : false,
        "hideProfileVisibilitySettings" : true,
        "id" : "{!recordId}",
        "locationTitle" : "Location",
        "profileSectionDescText" : "Customize who is able to see what on your profile page",
        "profileSectionToolTipText" : "Restricted: Visible to the employees of the company that created the site. Members: Visible to logged-in members. Public: Visible to anyone viewing pages that don't require login.",
        "profileVisibilityTitle" : "Profile Visibility",
        "settingsPageTitle" : "My Settings"
      },
      "componentName" : "forceCommunity:userSettingsCustomizable",
      "id" : "17fbe495-af41-46c3-8de7-e1fb6997ba6d",
      "renderPriority" : "NEUTRAL",
      "renditionMap" : { },
      "type" : "component"
    } ],
    "id" : "2bb53360-9800-4c68-b7c0-cca826a7f98e",
    "regionName" : "content",
    "type" : "region"
  }, {
    "id" : "37a5db38-be9f-4f38-8703-f52c82fabe76",
    "regionName" : "footer",
    "type" : "region"
  } ],
  "themeLayoutType" : "Inner",
  "type" : "view",
  "viewType" : "usersettings"
}