{
  "appPageId" : "6e36f285-e219-4a6f-8769-183ea4f1749c",
  "componentName" : "siteforce:sldsOneColLayout",
  "id" : "73fa058d-1368-4ff8-b7d8-fab8224cbe8d",
  "label" : "Create Record",
  "regions" : [ {
    "id" : "7a6a4b94-15a6-4145-b2f9-0acb88c0df1c",
    "regionName" : "header",
    "type" : "region"
  }, {
    "components" : [ {
      "componentAttributes" : {
        "actionApiName" : "{!actionApiName}",
        "isMicrobatch" : false
      },
      "componentName" : "forceCommunity:createRecordForm",
      "id" : "75400720-e157-4e5b-b1ed-712d0d24784c",
      "renderPriority" : "NEUTRAL",
      "renditionMap" : { },
      "type" : "component"
    } ],
    "id" : "90187c7d-8217-4ee5-af32-4104e8ee50f7",
    "regionName" : "content",
    "type" : "region"
  }, {
    "id" : "0c83de19-1788-4d6b-9c18-cce7d33acb2c",
    "regionName" : "footer",
    "type" : "region"
  } ],
  "themeLayoutType" : "Inner",
  "type" : "view",
  "viewType" : "createrecord"
}