{
  "appPageId" : "6e36f285-e219-4a6f-8769-183ea4f1749c",
  "componentName" : "siteforce:sldsOneColLayout",
  "id" : "f28e1476-595c-46f1-be1b-8f5e6c27b9dc",
  "label" : "File List",
  "regions" : [ {
    "id" : "d31641ce-9601-429f-9f6b-62f58ba410a0",
    "regionName" : "header",
    "type" : "region"
  }, {
    "components" : [ {
      "componentAttributes" : {
        "pageSize" : 25
      },
      "componentName" : "forceCommunity:filesList",
      "id" : "4ec66a44-a8bd-405f-942b-75927cece87d",
      "renderPriority" : "NEUTRAL",
      "renditionMap" : { },
      "type" : "component"
    } ],
    "id" : "643c6474-7a4f-4970-9bc6-b00b46dd98bd",
    "regionName" : "content",
    "type" : "region"
  }, {
    "id" : "ddc231d0-43e1-4b82-a8d9-aca6c4101b4a",
    "regionName" : "footer",
    "type" : "region"
  } ],
  "themeLayoutType" : "Inner",
  "type" : "view",
  "viewType" : "list-069"
}