{
  "appPageId" : "6e36f285-e219-4a6f-8769-183ea4f1749c",
  "componentName" : "siteforce:sldsOneColLayout",
  "id" : "1ab0e628-4b72-423a-8dad-c579e4804380",
  "label" : "File Detail",
  "regions" : [ {
    "id" : "88b42ba6-27d7-4104-9cc1-4a2e01c662e8",
    "regionName" : "header",
    "type" : "region"
  }, {
    "components" : [ {
      "componentAttributes" : { },
      "componentName" : "forceCommunity:fileDetailPage",
      "id" : "936c617a-42d3-44ce-8f1b-e44218082c57",
      "renderPriority" : "NEUTRAL",
      "renditionMap" : { },
      "type" : "component"
    } ],
    "id" : "1797e694-3d91-4086-aff1-709db6c790a1",
    "regionName" : "content",
    "type" : "region"
  }, {
    "id" : "da6c872f-9ce3-415f-82ab-e6f7a503c148",
    "regionName" : "footer",
    "type" : "region"
  } ],
  "themeLayoutType" : "Inner",
  "type" : "view",
  "viewType" : "detail-069"
}