{
  "appPageId" : "6e36f285-e219-4a6f-8769-183ea4f1749c",
  "componentName" : "siteforce:sldsOneColLayout",
  "id" : "e6a9c0d5-b212-491f-9c85-b8419ede70cf",
  "label" : "Fluxo Related List",
  "regions" : [ {
    "id" : "b66af404-4f44-4829-9326-b53c4bfcdb2a",
    "regionName" : "header",
    "type" : "region"
  }, {
    "id" : "f348142f-78cb-4ecc-be7f-c66b1dbe6cca",
    "regionName" : "content",
    "type" : "region"
  }, {
    "id" : "3352c735-48e3-48e3-b656-1549b54a4b7c",
    "regionName" : "footer",
    "type" : "region"
  } ],
  "themeLayoutType" : "Inner",
  "type" : "view",
  "viewType" : "relatedlist-0Fq"
}