{
  "appPageId" : "6e36f285-e219-4a6f-8769-183ea4f1749c",
  "componentName" : "siteforce:sldsOneColLayout",
  "id" : "3ba39025-7142-4032-bead-fea572311427",
  "label" : "Group Detail",
  "regions" : [ {
    "id" : "0065f668-de0b-43de-83c4-008da67038e9",
    "regionName" : "header",
    "type" : "region"
  }, {
    "components" : [ {
      "componentAttributes" : {
        "detailsTabLabel" : "Details",
        "engagementManagersOnly" : false,
        "engagementTabLabel" : "Engagement",
        "feedTabLabel" : "Feed",
        "recordId" : "{!recordId}",
        "relatedTabLabel" : "Related"
      },
      "componentName" : "forceCommunity:groupRecordHomeTabs",
      "id" : "0625246d-039c-4aa5-adc4-4f94b866487d",
      "renderPriority" : "NEUTRAL",
      "renditionMap" : { },
      "type" : "component"
    } ],
    "id" : "5db44bfa-1cbd-435f-a2cf-3b17938ea744",
    "regionName" : "content",
    "type" : "region"
  }, {
    "id" : "7ac7ce4a-95f3-43b7-b2b7-cf5128b0992a",
    "regionName" : "footer",
    "type" : "region"
  }, {
    "components" : [ {
      "componentAttributes" : {
        "customHeadTags" : "",
        "description" : "",
        "title" : "{!Record._Object}: {!Record._Title}"
      },
      "componentName" : "forceCommunity:seoAssistant",
      "id" : "c73bd580-4f5c-48ea-ac1b-5112e418f43c",
      "renditionMap" : { },
      "type" : "component"
    } ],
    "id" : "3dac5273-078e-4047-aa72-1bdb93c54495",
    "regionName" : "sfdcHiddenRegion",
    "type" : "region"
  } ],
  "themeLayoutType" : "Inner",
  "type" : "view",
  "viewType" : "detail-0F9"
}