{
  "appPageId" : "6e36f285-e219-4a6f-8769-183ea4f1749c",
  "componentName" : "siteforce:sldsOneColLayout",
  "id" : "36ad79db-2cdd-4c70-9e8f-bd976911300f",
  "label" : "Quip Docs Related List",
  "regions" : [ {
    "id" : "02fd545f-ca78-4ed8-957f-8224384c00f7",
    "regionName" : "header",
    "type" : "region"
  }, {
    "components" : [ {
      "componentAttributes" : {
        "parentRecordId" : "{!recordId}"
      },
      "componentName" : "forceCommunity:relatedQuipItemsView",
      "id" : "7d420802-2b82-43e8-b524-66da5e639d02",
      "renderPriority" : "NEUTRAL",
      "renditionMap" : { },
      "type" : "component"
    } ],
    "id" : "1708a400-1466-413a-bab4-48087b64a617",
    "regionName" : "content",
    "type" : "region"
  }, {
    "id" : "b3a67a48-51ee-4ed3-af50-017f49f46afe",
    "regionName" : "footer",
    "type" : "region"
  } ],
  "themeLayoutType" : "Inner",
  "type" : "view",
  "viewType" : "extrelated-quip"
}