{
  "appPageId" : "6e36f285-e219-4a6f-8769-183ea4f1749c",
  "componentName" : "siteforce:sldsOneColLayout",
  "id" : "e15de58f-79ac-4524-8f63-2a5da9493d15",
  "label" : "Record Detail",
  "regions" : [ {
    "id" : "72b7dd79-b101-4269-b69e-742715760c0b",
    "regionName" : "header",
    "type" : "region"
  }, {
    "components" : [ {
      "componentAttributes" : {
        "recordId" : "{!recordId}"
      },
      "componentName" : "forceCommunity:recordHeadline",
      "id" : "8eb4bebe-5c94-4ba2-82c7-83991ed44e05",
      "renderPriority" : "NEUTRAL",
      "renditionMap" : { },
      "type" : "component"
    }, {
      "componentAttributes" : {
        "detailsTabLabel" : "Details",
        "discussionsTabLabel" : "Feed",
        "recordId" : "{!recordId}",
        "relatedTabLabel" : "Related",
        "tab1Type" : "details",
        "tab2Type" : "related",
        "tab3Type" : "chatter",
        "tab4Type" : "none",
        "timelineTabLabel" : "Activity"
      },
      "componentName" : "forceCommunity:recordHomeTabs",
      "id" : "8cbd141c-48db-4d01-bd1e-b7d90b556d6b",
      "renderPriority" : "NEUTRAL",
      "renditionMap" : { },
      "type" : "component"
    } ],
    "id" : "ed4ff360-1447-4e73-8dda-e6bab4630378",
    "regionName" : "content",
    "type" : "region"
  }, {
    "id" : "dcbdbaa8-4def-4a65-ace1-c692c2c4a9bb",
    "regionName" : "footer",
    "type" : "region"
  }, {
    "components" : [ {
      "componentAttributes" : {
        "customHeadTags" : "",
        "description" : "",
        "title" : "{!Record._Object}: {!Record._Title}"
      },
      "componentName" : "forceCommunity:seoAssistant",
      "id" : "a2b317f5-48cd-47cf-b71e-c6405d769520",
      "renditionMap" : { },
      "type" : "component"
    } ],
    "id" : "b8b61b81-7228-4831-acd8-ce7e749783c7",
    "regionName" : "sfdcHiddenRegion",
    "type" : "region"
  } ],
  "themeLayoutType" : "Inner",
  "type" : "view",
  "viewType" : "detail"
}