{
    "oportunidade": null,
    "codigoCliente": "00017129",
    "operadorAC": null,
    "statusCliente": "I",
    "codigoRetorno": "02",
    "mensagemRetorno": "E-mail enviado com sucesso ao GAAS, para a Reativação do cliente.",
    "dados": null
}