{
  "activeBrandingSetId" : "dfccbc76-8e4f-496c-8eaa-4715ea701f5b",
  "customCSS" : "",
  "developerName" : "service",
  "id" : "6550785b-482a-460c-b225-6fd098398cbd",
  "label" : "Atendimento ao cliente",
  "layouts" : {
    "Inner" : "71c5d29e-686b-40e1-8058-b4f44453b4e8",
    "Login" : "1ebdf901-bb87-41e5-b2e5-ca9ba3f664a3",
    "ServiceNotAvailable" : "da5a876e-9e9c-40d5-8701-997071563582"
  },
  "type" : "theme",
  "views" : [ {
    "componentAttributes" : { },
    "componentName" : "salesforceIdentity:loginBody2",
    "id" : "1ebdf901-bb87-41e5-b2e5-ca9ba3f664a3",
    "label" : "Login",
    "regions" : [ {
      "id" : "75922a24-2e03-4bc0-b172-11ed1f841423",
      "regionName" : "header",
      "type" : "region"
    }, {
      "id" : "a0aa8993-f05b-41d2-a81e-6ed8808e8557",
      "regionName" : "content",
      "type" : "region"
    }, {
      "id" : "c73beec5-86e0-4e30-88f9-fb19f60c22e1",
      "regionName" : "footer",
      "type" : "region"
    } ],
    "type" : "view"
  }, {
    "componentAttributes" : {
      "IsDefaultHeaderHidden" : false,
      "IsDefaultNotificationsHidden" : false,
      "fixedPageWidth" : 1140,
      "isPageWidthFixed" : true
    },
    "componentName" : "siteforce:serviceBody",
    "id" : "71c5d29e-686b-40e1-8058-b4f44453b4e8",
    "label" : "Default",
    "regions" : [ {
      "id" : "268a4239-0b55-4647-95c1-4a40da7b953d",
      "regionName" : "customHeader",
      "type" : "region"
    }, {
      "components" : [ {
        "componentAttributes" : {
          "contineActionLabel" : "Ask the community",
          "continueLabel" : "Don’t see it?",
          "crossObjectTypeaheadApiNames" : [ {
            "isPublic" : true,
            "name" : "KnowledgeArticleVersion"
          }, {
            "isPublic" : true,
            "name" : "FeedItem"
          }, {
            "isPublic" : false,
            "name" : "Case"
          }, {
            "isPublic" : true,
            "name" : "CollaborationGroup"
          } ],
          "disableCrossObjectRelevance" : false,
          "enableAutocomplete" : true,
          "maxNumberOfResults" : 6,
          "placeholder" : "Search...",
          "questionResultsFirst" : false,
          "showContinueAction" : true,
          "showDetails" : false,
          "showTopics" : true,
          "signInActionLabel" : "Sign in to ask the community"
        },
        "componentName" : "forceCommunity:searchBox",
        "id" : "42d56627-03a3-4301-aa06-33b22b18c061",
        "renditionMap" : { },
        "type" : "component"
      } ],
      "id" : "03090ae4-4950-47cf-abe6-2c5f8b75b5a9",
      "regionName" : "search",
      "type" : "region"
    }, {
      "components" : [ {
        "componentAttributes" : {
          "accountManagementLabel" : "Account Management",
          "communityBuilderLabel" : "Experience Builder",
          "communitySetupLabel" : "Salesforce Setup",
          "contactSupportLabel" : "Contact Support",
          "filterName" : "MyCases",
          "homeLabel" : "Home",
          "includeContactSupport" : true,
          "includeMessages" : false,
          "loginLabel" : "Login",
          "logoutLabel" : "Logout",
          "myAccountLabel" : "My Account",
          "showAccountManagement" : true,
          "showUserSettings" : true,
          "userSettingsLabel" : "My Settings",
          "viewProfileLabel" : "My Profile"
        },
        "componentName" : "selfService:userProfileMenu",
        "id" : "66ee04f6-7126-4cd8-ad52-672bc5d68e70",
        "renditionMap" : { },
        "type" : "component"
      } ],
      "id" : "886f8efe-141a-401f-842b-9670babcb30b",
      "regionName" : "profileMenu",
      "type" : "region"
    }, {
      "components" : [ {
        "componentAttributes" : {
          "NavigationMenuEditorRefresh" : "",
          "hideAppLauncher" : false,
          "hideHomeText" : false
        },
        "componentName" : "forceCommunity:globalNavigation",
        "id" : "437f1040-3636-414a-84d2-895ab0e27d64",
        "renditionMap" : { },
        "type" : "component"
      } ],
      "id" : "e2132aa8-c054-4ba0-b30f-052ff99da88b",
      "regionName" : "navBar",
      "type" : "region"
    }, {
      "id" : "eb68a214-57cb-4ded-a339-9b27e1cc90c8",
      "regionName" : "customRegion",
      "type" : "region"
    }, {
      "id" : "9199b78a-0a6f-4184-a055-4a824375a9bd",
      "regionName" : "footer",
      "type" : "region"
    } ],
    "type" : "view"
  }, {
    "componentAttributes" : {
      "fixedPageWidth" : 1170,
      "headerBgColor" : "rgba(0, 0, 0, 0)",
      "isHeaderPinned" : false,
      "isHeroUnderHeader" : false,
      "isPageWidthFixed" : true,
      "showHeader" : true,
      "showHero" : true
    },
    "componentName" : "siteforce:themeLayoutStarter",
    "id" : "da5a876e-9e9c-40d5-8701-997071563582",
    "label" : "ServiceNotAvailable",
    "regions" : [ {
      "id" : "81ac7386-9d49-4355-89cb-208fad60b2a9",
      "regionName" : "themeHeader",
      "type" : "region"
    }, {
      "id" : "64059ca3-c590-4261-96bb-e30d46f201c9",
      "regionName" : "themeFooter",
      "type" : "region"
    } ],
    "type" : "view"
  } ]
}